Le blog des JO - Les éditions olympiques
…
# Importation du jeu de données
list_tables <-
  session("https://fr.wikipedia.org/wiki/Liste_des_m%C3%A9daill%C3%A9s_olympiques") |>
  html_elements(".wikitable") |>
  html_table()

list_tables

[[1]]
# A tibble: 31 × 11
   Discipline   Discipline   Années `Nombre de` `Nombre de` `médailles décernés`
   <chr>        <chr>        <chr>  <chr>       <chr>       <chr>               
 1 "Discipline" Discipline   Années Éditions    Épreuves(e… Or                  
 2 ""           Athlétisme   Depui… 29          48          1028                
 3 ""           Aviron       Depui… 28          14          269                 
 4 ""           Badminton    Depui… 8           5           39                  
 5 ""           Basket-ball  Depui… 20          4           32                  
 6 ""           Boxe         1904,… 26          13          266                 
 7 ""           Canoë-kayak  Depui… 20          16          242                 
 8 ""           Cyclisme(ho… Depui… 29          22          263                 
 9 ""           Équitation   1900,… 26          6           151                 
10 ""           Escrime      Depui… 29          12          223                 
# ℹ 21 more rows
# ℹ 5 more variables: `médailles décernés` <chr>, `médailles décernés` <chr>,
#   `médailles décernés` <chr>,
#   `Athlète(s) avec le plus de médailles (Or-Argent-Bronze)` <chr>,
#   `Athlète(s) avec le plus de médailles d'or` <chr>
…
[[4]]
# A tibble: 2 × 8
  Discipline   Discipline        Années `Nombre d'éditions` `Médailles décernés`
  <chr>        <chr>             <chr>  <chr>               <chr>               
1 "Discipline" Discipline        Années Nombre d'éditions   Or                  
2 ""           Patrouille milit… 1924   1                   1                   
# ℹ 3 more variables: `Médailles décernés` <chr>, `Médailles décernés` <chr>,
#   `Médailles décernés` <chr>

[[5]]
# A tibble: 30 × 11
   Jeux  Médaille  Médaille Hôte     Nombred'épreuves(ave…¹ `Médailles décernés`
   <chr> <chr>     <chr>    <chr>    <chr>                  <chr>               
 1 Jeux  Médaille  Médaille Hôte     Nombred'épreuves(avec… Or                  
 2 1896  médaillés tableau  Athènes… 43                     43                  
 3 1900  médaillés tableau  Paris, … 95                     90                  
 4 1904  médaillés tableau  Saint-L… 91                     96                  
 5 1908  médaillés tableau  Londres… 110                    110                 
 6 1912  médaillés tableau  Stockho… 102                    103                 
 7 1920  médaillés tableau  Anvers,… 154                    156                 
 8 1924  médaillés tableau  Paris, … 126                    126                 
 9 1928  médaillés tableau  Amsterd… 109                    111                 
10 1932  médaillés tableau  Los Ang… 117                    116                 
# ℹ 20 more rows
# ℹ abbreviated name: ¹​`Nombred'épreuves(avec médailles)`
# ℹ 5 more variables: `Médailles décernés` <chr>, `Médailles décernés` <chr>,
#   `Médailles décernés` <chr>,
#   `Athlète(s) avec le plus de médailles (Or-Argent-Bronze)` <chr>,
#   `Athlète(s) avec le plus de médailles d'or` <chr>

[[6]]
# A tibble: 24 × 11
   Jeux  Médaille  Médaille Hôte     Nombred'épreuves(ave…¹ `Médailles décernés`
   <chr> <chr>     <chr>    <chr>    <chr>                  <chr>               
 1 Jeux  Médaille  Médaille Hôte     Nombred'épreuves(avec… Or                  
 2 1924  médaillés tableau  Chamoni… 16                     16                  
 3 1928  médaillés tableau  Saint-M… 14                     14                  
 4 1932  médaillés tableau  Lake Pl… 14                     14                  
 5 1936  médaillés tableau  Garmisc… 17                     17                  
 6 1948  médaillés tableau  Saint-M… 22                     22                  
 7 1952  médaillés tableau  Oslo, N… 22                     22                  
 8 1956  médaillés tableau  Cortina… 24                     25                  
 9 1960  médaillés tableau  Squaw V… 27                     28                  
10 1964  médaillés tableau  Innsbru… 34                     34                  
# ℹ 14 more rows
# ℹ abbreviated name: ¹​`Nombred'épreuves(avec médailles)`
# ℹ 5 more variables: `Médailles décernés` <chr>, `Médailles décernés` <chr>,
#   `Médailles décernés` <chr>,
#   `Athlète(s) avec le plus de médailles (Or-Argent-Bronze)` <chr>,
#   `Athlète(s) avec le plus de médailles d'or` <chr>
…
for (i in seq_along(resultats_medailles)) {
  matches <- str_match_all(data_medailles_sport_ete$Athletes_medailles[i], "([^\\(]+)\\s*\\([^)]+\\)\\s*\\((\\d+)-(\\d+)-(\\d+)\\)")
  
  df <- tibble(
    Athlete = trimws(matches[[1]][, 1]),
    Medailles = resultats_medailles[[i]]
  )
  
  list_df[[i]] <- df
}

final_df <- do.call(rbind, list_df)
final_df

# A tibble: 62 × 2
   Athlete                         Medailles
   <chr>                               <dbl>
 1 Paavo Nurmi (FIN) (9-3-0)              12
 2 Elisabeta Lipă (ROU) (5-2-1)            8
 3 Gao Ling (CHN) (2-1-1)                  4
 4 Teresa Edwards (USA) (4-0-1)            5
 5 László Papp (HUN) (3-0-0)               3
 6 Félix Savón (CUB) (3-0-0)               3
 7 Teófilo Stevenson (CUB) (3-0-0)         3
 8 Roniel Iglesias (CUB) (2-0-1)           3
 9 Boris Lagutin (URS) (2-0-1)             3
10 Oleg Saitov (RUS) (2-0-1)               3
# ℹ 52 more rows
…
