Le blog des JO - Les athlètes olympiques
…
dbListFields(con, "olympics_athletes")

 [1] "ID"     "Name"   "Sex"    "Age"    "Height" "Weight" "Team"   "NOC"   
 [9] "Games"  "City"   "Sport"  "Event"  "Medal" 

Les colonnes présentes dans la table sont ID Name Sex Age Height Weight Team NOC Games City Sport Event et Medal

Importation de la table olympics_athletes :

table_olympics <- dbReadTable(con, "olympics_athletes")
table_olympics <- as_tibble(table_olympics)
table_olympics

# A tibble: 269,731 × 13
      ID Name      Sex     Age Height Weight Team  NOC   Games City  Sport Event
   <int> <chr>     <chr> <int>  <int>  <dbl> <chr> <chr> <chr> <chr> <chr> <chr>
 1     1 A Dijiang M        24    180     80 China CHN   1992… Barc… Bask… Bask…
 2     2 A Lamusi  M        23    170     60 China CHN   2012… Lond… Judo  Judo…
 3     3 Gunnar N… M        24     NA     NA Denm… DEN   1920… Antw… Foot… Foot…
 4     4 Edgar Li… M        34     NA     NA Denm… DEN   1900… Paris Tug-… Tug-…
 5     5 Christin… F        21    185     82 Neth… NED   1988… Calg… Spee… Spee…
 6     5 Christin… F        21    185     82 Neth… NED   1988… Calg… Spee… Spee…
 7     5 Christin… F        25    185     82 Neth… NED   1992… Albe… Spee… Spee…
 8     5 Christin… F        25    185     82 Neth… NED   1992… Albe… Spee… Spee…
 9     5 Christin… F        27    185     82 Neth… NED   1994… Lill… Spee… Spee…
10     5 Christin… F        27    185     82 Neth… NED   1994… Lill… Spee… Spee…
# ℹ 269,721 more rows
# ℹ 1 more variable: Medal <chr>
…
Calcul de la moyenne d’âge pour chaque édition des JO :

summary(table_olympics$Age)

   Min. 1st Qu.  Median    Mean 3rd Qu.    Max.    NA's 
  10.00   21.00   24.00   25.45   28.00   97.00    9315 

moyenne <- table_olympics |>
  filter(isSummer==TRUE) |>
  group_by(Year) |>
  summarise(moyenne_age_edition = mean(Age, na.rm=TRUE))

moyenne

# A tibble: 29 × 2
    Year moyenne_age_edition
   <int>               <dbl>
 1  1896                23.6
 2  1900                28.9
 3  1904                26.7
 4  1906                27.1
 5  1908                27.0
 6  1912                27.5
 7  1920                29.3
 8  1924                28.1
 9  1928                28.0
10  1932                30.2
# ℹ 19 more rows
…
